<?xml version="1.0" encoding="UTF-8" standalone="no"?>
<!-- Created with Inkscape (http://www.inkscape.org/) -->

<svg
   width="16.933113mm"
   height="16.934238mm"
   viewBox="0 0 16.933113 16.934239"
   version="1.1"
   id="svg5"
   inkscape:version="1.1.1 (1:1.1+202109281944+c3084ef5ed)"
   sodipodi:docname="star.svg"
   xmlns:inkscape="http://www.inkscape.org/namespaces/inkscape"
   xmlns:sodipodi="http://sodipodi.sourceforge.net/DTD/sodipodi-0.dtd"
   xmlns="http://www.w3.org/2000/svg"
   xmlns:svg="http://www.w3.org/2000/svg">
  <sodipodi:namedview
     id="namedview7"
     pagecolor="#505050"
     bordercolor="#eeeeee"
     borderopacity="1"
     inkscape:pageshadow="0"
     inkscape:pageopacity="0"
     inkscape:pagecheckerboard="0"
     inkscape:document-units="mm"
     showgrid="false"
     fit-margin-top="0"
     fit-margin-left="0"
     fit-margin-right="0"
     fit-margin-bottom="0"
     inkscape:zoom="7.2466938"
     inkscape:cx="35.602443"
     inkscape:cy="27.66779"
     inkscape:window-width="1920"
     inkscape:window-height="1054"
     inkscape:window-x="0"
     inkscape:window-y="0"
     inkscape:window-maximized="1"
     inkscape:current-layer="layer1" />
  <defs
     id="defs2" />
  <g
     inkscape:label="Layer 1"
     inkscape:groupmode="layer"
     id="layer1"
     transform="translate(-57.256014,-84.512329)">
    <path
       id="path846"
       style="opacity:1;fill:#ffff00;stroke:#000000;stroke-width:0.940424;stroke-linecap:round;stroke-linejoin:round;paint-order:stroke fill markers;stop-color:#000000"
       inkscape:transform-center-x="0.048152477"
       inkscape:transform-center-y="-0.8408028"
       d="m 64.357587,87.275619 -1.241839,2.830798 -2.768955,0.445424 c -3.35395,0.438266 -3.308481,0.282596 -0.885827,2.627886 l 2.152127,2.083399 -0.426781,2.739101 c -0.69268,3.702103 -0.762634,3.531013 2.264736,1.749803 l 2.373736,-1.396642 2.413658,1.305491 c 3.046022,1.765891 2.911133,1.852801 2.247514,-1.632759 l -0.55559,-2.918285 1.903422,-1.976773 c 2.263009,-2.340299 2.901079,-2.322088 -0.411935,-2.730728 L 68.256064,90.011855 67.065475,87.531167 C 65.593626,84.33915 65.786254,84.018935 64.357587,87.275619 Z"
       sodipodi:nodetypes="cccccccccccccccc"
       inkscape:export-filename="/home/vit/ProjectG70/godot3/s-platformer-base/game/sprites/star.png"
       inkscape:export-xdpi="96.036186"
       inkscape:export-ydpi="96.036186" />
  </g>
</svg>
